{
    "avgSnr": // Average Signal-To-Noise ratio
    {
        "S": "30.54"
    },
    "data": //Message conent in hexadecimal, max 12 bytes
    {
        "S": "00"
    },
    "device": // Device ID
    {
        "S": "4D9B62"
    },
    "duplicate": // A Sigfox message may be received my multiple Basestations.If so, the first message is marked duplicate: false and the rest are maked duplicate:true
    {
        "S": "false"
    },
    "lat": // Approximate latitude of basestation
    {
        "S": "10.0"
    },
    "lng": // Approximate longitude of basestation
    {
        "S": "-84.0"
    },
    "rssi": // Rssi (Signal strength) of received message
    {
        "S": "-121.00"
    },
    "seqNumber": // Running sequence number of the message
    {
        "S": "22"
    },
    "snr": // Signal to noise ratio
    {
        "S": "22.78"
    },
    "station": //Sigfox basestation id the received this message
    {
        "S": "6E88"
    },
    "time": //Timestamp of receipt of message by basestation.
    {
        "S": "1533944310"
    }
}

{
    "avgSnr": 
    {
        "S": "30.54"
    },
    "data": 
    {
        "S": "00"
    },
    "device":
    {
        "S": "4D9B62"
    },
    "duplicate":
    {
        "S": "false"
    },
    "lat": 
    {
        "S": "10.0"
    },
    "lng":
    {
        "S": "-84.0"
    },
    "rssi": 
    {
        "S": "-121.00"
    },
    "seqNumber": 
    {
        "S": "22"
    },
    "snr": 
    {
        "S": "22.78"
    },
    "station": 
    {
        "S": "6E88"
    },
    "time":
    {
        "S": "1533944310"
    }
}